<svg width="13" height="13" viewBox="0 0 13 13" fill="none" xmlns="http://www.w3.org/2000/svg">
<rect x="0.5" y="0.5" width="12" height="12" rx="1.5" stroke="#946FD3"/>
<path fill-rule="evenodd" clip-rule="evenodd" d="M9 7H4V6H9V7Z" fill="#946FD3"/>
</svg>
